<?xml version="1.0" encoding="utf-8"?>
<!-- Generator: Adobe Illustrator 19.0.0, SVG Export Plug-In . SVG Version: 6.00 Build 0)  -->
<svg version="1.1" id="Layer_1" xmlns="http://www.w3.org/2000/svg" xmlns:xlink="http://www.w3.org/1999/xlink" x="0px" y="0px"
	 viewBox="0 0 512 512" style="enable-background:new 0 0 512 512;" xml:space="preserve">
<style type="text/css">
	.st0{fill:#C2C0C0;}
	.st1{fill:#E6EAEF;}
	.st2{clip-path:url(#SVGID_2_);fill:#5D606E;}
</style>
<g id="XMLID_18_">
</g>
<g id="XMLID_19_">
</g>
<g id="XMLID_20_">
</g>
<g id="XMLID_21_">
</g>
<g id="XMLID_22_">
</g>
<g id="XMLID_23_">
</g>
<g>
	<g id="XMLID_2_">
		<g>
			<circle class="st0" cx="265.9" cy="265.9" r="247.5"/>
		</g>
		<g>
			<circle class="st1" cx="256" cy="256" r="247.5"/>
		</g>
	</g>
	<g id="XMLID_16_">
		<g>
			<defs>
				<circle id="SVGID_1_" cx="256" cy="256" r="247.5"/>
			</defs>
			<clipPath id="SVGID_2_">
				<use xlink:href="#SVGID_1_"  style="overflow:visible;"/>
			</clipPath>
			<path class="st2" d="M384.8,392.3c-1.5-0.1-3.3,0.2-4.4-0.5c-2.5-1.5-6.1-3.3-6.4-5.4c-0.3-2.1,2.3-5.5,4.5-7.1
				c2.8-2,6.4-2.8,10.1-4.2c-1.4-5.8-2.7-11.3-4-16.8c-1.7-7.5,0.2-10.1,7.9-11c2.5-0.3,5.1-0.6,7.6-1.1
				c10.8-1.9,14.8-11.5,8.2-20.5c-4-5.6-9.1-10.4-13-16c-4.9-7.1-9.9-14.3-13.1-22.2c-2-4.9-2.1-11.4-0.8-16.7
				c7.3-28.1,4-54.9-13.3-77.7c-35.3-46.6-82.5-66.1-140.8-56.1c-26.3,4.5-51.6,11.9-73.8,27.3c-37.8,26.1-53.5,63.3-53.1,108.3
				c0.2,23.4,7.2,44.6,21.2,63.2c9.7,12.8,15.9,27.1,20.6,42.3c1.4,4.6,1.4,8.6-3.7,10.2c-4.8,1.6-7.2-1.8-8.5-6
				c-5-16.8-12.9-32.1-23.5-46.1c-10.2-13.6-14.5-29.6-17.1-46.1c-5.8-35.7,0.9-69,20.3-99.6c14.5-22.8,35-39.1,59.6-49.6
				c37.3-15.9,76.1-25,116.5-16c45.1,10.1,80.8,34.8,101.8,76.8c11.3,22.6,13.4,47.3,5.9,72c-1.8,6.1,0,11.6,3.3,16.3
				c6.3,9,13.1,17.7,19.9,26.4c14.6,18.7,7.3,38.6-16,43c-0.7,0.1-1.5,0.4-2.6,0.8c0.7,3.4,1.3,6.7,2.2,9.8c1.5,5.1,1,9.7-2.4,14
				c-0.8,1-1,2.8-0.7,4.1c1.9,9.8-1.5,17.8-10.5,22.1c-4.1,1.9-4.9,4-3.8,8.2c1.5,6.3,2.5,12.8,3.2,19.2c1.5,12.5-4,21-16.6,21.9
				c-20.8,1.5-41.7,1.3-62.6,1.8c-2.1,0-4.2-0.4-7.2-0.7c1.2,10.6,2.4,20.7,3.6,30.8c0.1,1.2,0.3,2.3,0.5,3.5
				c0.6,4.6-0.2,8.7-5.6,9.3c-5,0.5-6.7-3.2-7.2-7.6c-1.2-9.8-2.7-19.6-3.4-29.4c-0.5-7.1-2.6-11.8-9.5-15.7
				c-15.6-8.8-25.7-23-32.9-39.3c-1.7-3.8-1.7-7.6,2.7-9.6c4.4-2,6.9,0.6,9,4.2c3.6,6.3,6.9,12.9,11.3,18.7
				c11.2,15,26.4,23.2,45.1,23.4c16.6,0.2,33.1-0.5,49.7-1.3c10.4-0.5,11.4-2.3,9.9-12.5c-0.8-5.9-2.1-11.6-3.2-17.5
				c-1.7-8.9,0.8-13.6,8.8-17.9c2.6-1.4,4.7-3.7,7.1-5.6C385.5,393.4,385.2,392.8,384.8,392.3z M256.3,360.1
				c15.6,0,15.9,0,15.6-15.6c-0.2-10.1,3.7-17.7,10.8-24.5c5.3-5.1,10.8-10.5,14.6-16.8c12.3-20.7,9.8-47-5.3-65.9
				c-15.2-18.9-40.3-27-63.3-19.7c-22.1,7-36.3,22.2-40.8,44.9c-4.4,22.6,2.1,42,20.2,57.1c7.3,6,12.1,13.4,11.4,23.4
				c-0.2,2.9-0.1,5.9,0,8.9c0.2,5.8,2.5,8.1,8.4,8.2c5.9,0.1,11.8,0,17.7,0C249.2,360.1,252.8,360.1,256.3,360.1z M232.5,346.9
				c0.2-9.6-0.8-18.8-6.8-26.5c-2.5-3.2-5-6.7-8.2-9.2c-20.8-16.6-24.3-46.2-7.6-66.4c16.6-20.2,46.4-22.7,66.1-5.7
				c20,17.3,21.6,46.8,3.7,66.6c-4.7,5.2-11,9.5-14.2,15.5c-4,7.5-5.7,16.4-8.6,25.6C249.9,346.9,241.5,346.9,232.5,346.9z
				 M141.6,422.6c-2.1-0.2-5.5,2.7-6.5,5.1c-1.7,4.1-1.8,8.8-2.9,13.2c-3.3,13.1-9.1,25.1-16.8,36.1c-2.4,3.5-2.8,7.2,1.1,9.8
				c3.9,2.6,7.1,0.8,9.5-2.7c1.6-2.3,3.1-4.6,4.5-6.9c9.1-14.8,14.7-30.8,17.1-49.9C146.2,426.1,144,422.8,141.6,422.6z
				 M264.4,377.2v-2c0-3-2.5-5.5-5.5-5.5h-26.1c-3,0-5.5,2.5-5.5,5.5v2c0,3,2.5,5.5,5.5,5.5h26.1
				C261.9,382.7,264.4,380.3,264.4,377.2z M246.8,174.8h-2c-3,0-5.5,2.5-5.5,5.5v15.4c0,3,2.5,5.5,5.5,5.5h2c3,0,5.5-2.5,5.5-5.5
				v-15.4C252.4,177.3,249.9,174.8,246.8,174.8z M172.8,275.3v-2c0-3-2.5-5.5-5.5-5.5h-15.4c-3,0-5.5,2.5-5.5,5.5v2
				c0,3,2.5,5.5,5.5,5.5h15.4C170.4,280.8,172.8,278.3,172.8,275.3z M193,327.5l-1.4-1.4c-2.1-2.1-5.7-2.1-7.8,0l-10.9,10.9
				c-2.1,2.1-2.1,5.7,0,7.8l1.4,1.4c2.1,2.1,5.7,2.1,7.8,0l10.9-10.9C195.1,333.1,195.1,329.6,193,327.5z M172.9,212.1l10.9,10.9
				c2.1,2.1,5.7,2.1,7.8,0l1.4-1.4c2.1-2.1,2.1-5.7,0-7.8l-10.9-10.9c-2.1-2.1-5.7-2.1-7.8,0l-1.4,1.4
				C170.7,206.5,170.7,210,172.9,212.1z M322.5,280.8h15.4c3,0,5.5-2.5,5.5-5.5v-2c0-3-2.5-5.5-5.5-5.5h-15.4c-3,0-5.5,2.5-5.5,5.5
				v2C317,278.3,319.4,280.8,322.5,280.8z M296.8,335.3l10.9,10.9c2.1,2.1,5.7,2.1,7.8,0l1.4-1.4c2.1-2.1,2.1-5.7,0-7.8L306,326
				c-2.1-2.1-5.7-2.1-7.8,0l-1.4,1.4C294.7,329.6,294.7,333.1,296.8,335.3z M316.9,204.3l-1.4-1.4c-2.1-2.1-5.7-2.1-7.8,0
				l-10.9,10.9c-2.1,2.1-2.1,5.7,0,7.8l1.4,1.4c2.1,2.1,5.7,2.1,7.8,0l10.9-10.9C319.1,210,319.1,206.5,316.9,204.3z"/>
		</g>
	</g>
</g>
</svg>
