<?xml version="1.0" encoding="utf-8"?>
<!-- Generator: Adobe Illustrator 22.0.1, SVG Export Plug-In . SVG Version: 6.00 Build 0)  -->
<svg version="1.1" id="Layer_1" xmlns="http://www.w3.org/2000/svg" xmlns:xlink="http://www.w3.org/1999/xlink" x="0px" y="0px"
	 viewBox="0 0 504 81" style="enable-background:new 0 0 504 81;" xml:space="preserve">
<style type="text/css">
	.st0{fill-rule:evenodd;clip-rule:evenodd;fill:#231F20;}
	.st1{fill:#231F20;}
	.st2{fill-rule:evenodd;clip-rule:evenodd;fill:#1067B2;}
</style>
<g>
	<g>
		<path class="st0" d="M106.7,43.6c0.2,1.8,0.7,3.1,1.4,3.9c1.3,1.4,3.6,2,7,2c2,0,3.6-0.3,4.8-0.9c1.2-0.6,1.8-1.5,1.8-2.7
			c0-1.1-0.5-2-1.4-2.6c-1-0.6-4.5-1.6-10.6-3.1c-4.4-1.1-7.5-2.5-9.3-4.1c-1.8-1.6-2.7-3.9-2.7-7c0-3.6,1.4-6.7,4.2-9.3
			c2.8-2.6,6.8-3.9,11.9-3.9c4.9,0,8.8,1,11.9,2.9c3.1,1.9,4.8,5.3,5.3,10h-10.2c-0.1-1.3-0.5-2.4-1.1-3.1c-1.1-1.4-3-2.1-5.7-2.1
			c-2.2,0-3.8,0.3-4.8,1c-0.9,0.7-1.4,1.5-1.4,2.4c0,1.2,0.5,2,1.5,2.5c1,0.5,4.5,1.5,10.6,2.8c4,1,7.1,2.4,9.1,4.3c2,2,3,4.4,3,7.3
			c0,3.9-1.4,7-4.3,9.4c-2.9,2.4-7.3,3.7-13.3,3.7c-6.1,0-10.7-1.3-13.6-3.9c-2.9-2.6-4.4-5.9-4.4-9.9H106.7L106.7,43.6z M183,16.2
			c1.7,0,3.4,0.3,5.1,1c1.7,0.7,3.2,1.8,4.5,3.5c1.1,1.4,1.8,3,2.2,5c0.2,1.3,0.4,3.2,0.4,5.7L195.2,56h-10.4V31.2
			c0-1.5-0.2-2.7-0.7-3.6c-0.9-1.8-2.6-2.7-5-2.7c-2.8,0-4.8,1.2-5.9,3.5c-0.5,1.2-0.8,2.7-0.8,4.5V56h-10.2V32.8c0-2.3-0.2-4-0.7-5
			c-0.9-1.9-2.5-2.8-5-2.8c-2.9,0-4.9,0.9-5.9,2.8c-0.5,1.1-0.8,2.7-0.8,4.8V56h-10.3V17.2h9.9v5.7c1.3-2,2.4-3.5,3.6-4.3
			c2-1.5,4.5-2.3,7.7-2.3c3,0,5.4,0.7,7.2,2c1.5,1.2,2.6,2.8,3.3,4.7c1.3-2.3,3-4,5-5C178.1,16.8,180.5,16.2,183,16.2L183,16.2z
			 M225.6,16.1c0.2,0,0.4,0,0.5,0c0.1,0,0.4,0,0.9,0.1v10.5c-0.6-0.1-1.2-0.1-1.7-0.2c-0.5,0-0.9,0-1.2,0c-4.1,0-6.8,1.3-8.3,4
			c-0.8,1.5-1.2,3.8-1.2,6.9V56h-10.2V17h9.7v6.8c1.6-2.6,2.9-4.4,4.1-5.3C220.1,16.9,222.6,16.1,225.6,16.1L225.6,16.1z
			 M243.4,12.4h-10.3V3.1h10.3V12.4L243.4,12.4z M233.1,17h10.3v39h-10.3V17L233.1,17z M249.4,24.6v-7.2h5.4v-11h10.1v11h6.3v7.2
			h-6.3v20.6c0,1.6,0.2,2.6,0.6,3c0.4,0.4,1.6,0.6,3.7,0.6c0.3,0,0.6,0,1,0c0.3,0,0.7-0.1,1-0.1v7.6l-4.8,0.2
			c-4.8,0.2-8.1-0.7-9.8-2.5c-1.1-1.2-1.7-3-1.7-5.4v-24H249.4L249.4,24.6z M288.1,12.4h-10.3V3.1h10.3V12.4L288.1,12.4z M277.8,17
			h10.3v39h-10.3V17z"/>
		<path class="st0" d="M302.1,37.3c0,4.1,0.9,7.5,2.6,10.3c1.7,2.8,4.5,4.1,8.3,4.1c3,0,5.4-1.3,7.3-3.8c1.9-2.6,2.9-6.2,2.9-11
			c0-4.8-1-8.4-3-10.7c-2-2.3-4.4-3.5-7.3-3.5c-3.2,0-5.9,1.2-7.9,3.7C303.1,28.9,302.1,32.5,302.1,37.3L302.1,37.3z M311.8,17.1
			c2.9,0,5.4,0.6,7.3,1.9c1.1,0.7,2.4,2,3.9,3.8V3.4h6.2V56h-5.8v-5.3c-1.5,2.4-3.3,4.1-5.3,5.1c-2,1-4.4,1.6-7,1.6
			c-4.3,0-7.9-1.8-11.1-5.4c-3.1-3.6-4.7-8.3-4.7-14.3c0-5.6,1.4-10.4,4.3-14.5C302.4,19.1,306.5,17.1,311.8,17.1L311.8,17.1z
			 M354.6,16.9c2.7,0,5.4,0.6,7.9,1.9c2.5,1.3,4.5,2.9,5.8,4.9c1.3,1.9,2.1,4.2,2.6,6.8c0.4,1.8,0.6,4.6,0.6,8.4h-28
			c0.1,3.9,1,7,2.8,9.3c1.7,2.3,4.4,3.5,8,3.5c3.4,0,6-1.1,8-3.3c1.1-1.3,2-2.8,2.4-4.5h6.3c-0.2,1.4-0.7,3-1.7,4.7
			c-0.9,1.7-2,3.1-3.2,4.2c-2,1.9-4.4,3.2-7.3,3.9c-1.5,0.4-3.3,0.6-5.3,0.6c-4.8,0-8.8-1.7-12.1-5.2c-3.3-3.5-5-8.3-5-14.6
			c0-6.1,1.7-11.1,5-15C344.9,18.8,349.2,16.9,354.6,16.9L354.6,16.9z M364.8,33.8c-0.3-2.8-0.9-5-1.8-6.7c-1.8-3.1-4.7-4.6-8.8-4.6
			c-2.9,0-5.4,1.1-7.4,3.2c-2,2.1-3.1,4.8-3.2,8.1H364.8L364.8,33.8z M383.2,44c0.2,2.1,0.7,3.8,1.6,4.9c1.6,2.1,4.4,3.1,8.4,3.1
			c2.4,0,4.5-0.5,6.3-1.6c1.8-1,2.7-2.6,2.7-4.8c0-1.6-0.7-2.9-2.2-3.7c-0.9-0.5-2.8-1.1-5.5-1.8l-5.1-1.3c-3.3-0.8-5.7-1.7-7.2-2.7
			c-2.8-1.7-4.1-4.1-4.1-7.2c0-3.6,1.3-6.5,3.9-8.8c2.6-2.2,6.1-3.4,10.5-3.4c5.8,0,9.9,1.7,12.5,5.1c1.6,2.1,2.4,4.4,2.3,6.9h-6.1
			c-0.1-1.5-0.6-2.8-1.5-4c-1.5-1.7-4-2.5-7.7-2.5c-2.4,0-4.3,0.5-5.5,1.4c-1.2,0.9-1.9,2.1-1.9,3.7c0,1.7,0.8,3,2.5,4
			c1,0.6,2.4,1.1,4.2,1.6l4.3,1c4.6,1.1,7.7,2.2,9.3,3.3c2.5,1.6,3.7,4.2,3.7,7.8c0,3.4-1.3,6.3-3.9,8.8c-2.6,2.5-6.5,3.7-11.8,3.7
			c-5.7,0-9.7-1.3-12.1-3.9c-2.4-2.6-3.6-5.8-3.8-9.6H383.2L383.2,44z M415.9,17.9h6.5V56h-6.5V17.9L415.9,17.9z M415.9,3.5h6.5v7.3
			h-6.5V3.5L415.9,3.5z M445.7,17.1c3,0,5.6,0.7,7.9,2.2c1.2,0.8,2.4,2,3.7,3.6v-4.8h5.9v34.8c0,4.9-0.7,8.7-2.1,11.5
			c-2.7,5.2-7.7,7.8-15.1,7.8c-4.1,0-7.6-0.9-10.4-2.8c-2.8-1.8-4.4-4.7-4.7-8.7h6.5c0.3,1.7,0.9,3,1.9,4c1.5,1.4,3.7,2.1,6.9,2.1
			c4.9,0,8.2-1.7,9.7-5.2c0.9-2,1.3-5.7,1.3-11c-1.3,2-2.8,3.4-4.6,4.4c-1.8,1-4.2,1.4-7.2,1.4c-4.1,0-7.8-1.5-10.9-4.4
			c-3.1-2.9-4.7-7.8-4.7-14.6c0-6.4,1.6-11.4,4.7-15C437.5,18.9,441.2,17.1,445.7,17.1L445.7,17.1z M457.2,36.7
			c0-4.7-1-8.3-2.9-10.5c-2-2.3-4.4-3.4-7.5-3.4c-4.5,0-7.6,2.1-9.3,6.4c-0.9,2.3-1.3,5.2-1.3,8.9c0,4.3,0.9,7.6,2.6,9.8
			c1.8,2.2,4.1,3.4,7.1,3.4c4.6,0,7.9-2.1,9.8-6.2C456.7,42.6,457.2,39.9,457.2,36.7L457.2,36.7z M472.8,17.8h6.1v5.4
			c1.8-2.2,3.7-3.9,5.7-4.8c2-1,4.3-1.5,6.8-1.5c5.4,0,9.1,1.9,11,5.7c1,2.1,1.6,5,1.6,8.9V56h-6.5V31.9c0-2.3-0.3-4.2-1-5.6
			c-1.1-2.4-3.2-3.6-6.2-3.6c-1.5,0-2.8,0.1-3.8,0.5c-1.8,0.5-3.3,1.6-4.6,3.1c-1.1,1.3-1.8,2.6-2.1,3.9c-0.3,1.4-0.5,3.3-0.5,5.8
			v20h-6.4V17.8z"/>
	</g>
	<g>
		<path class="st1" d="M212.4,73.9c-0.8,0.9-2,1.3-3.6,1.3c-1.6,0-2.8-0.4-3.6-1.3c-1.1-1.1-1.7-2.6-1.7-4.5c0-2,0.6-3.5,1.7-4.5
			c0.8-0.9,2-1.3,3.6-1.3c1.6,0,2.8,0.4,3.6,1.3c1.1,1,1.7,2.5,1.7,4.5C214,71.3,213.5,72.8,212.4,73.9z M210.9,72.2
			c0.5-0.7,0.8-1.6,0.8-2.9c0-1.2-0.3-2.2-0.8-2.9c-0.5-0.7-1.3-1-2.2-1c-0.9,0-1.6,0.3-2.2,1s-0.8,1.6-0.8,2.9s0.3,2.2,0.8,2.9
			s1.3,1,2.2,1C209.7,73.2,210.4,72.9,210.9,72.2z"/>
		<path class="st1" d="M217,63.8h2.4l4.4,7.7v-7.7h2.1v11h-2.3l-4.5-7.8v7.8H217V63.8z"/>
		<path class="st1" d="M229.3,63.8h2.3v9h5.5v2h-7.8V63.8z"/>
		<path class="st1" d="M242,74.9h-2.3v-11h2.3V74.9z"/>
		<path class="st1" d="M245.4,63.8h2.4l4.4,7.7v-7.7h2.1v11H252l-4.5-7.8v7.8h-2.1V63.8z"/>
		<path class="st1" d="M265.8,65.8H260v2.3h5.4V70H260v2.8h6.1v2h-8.3v-11h8.1V65.8z"/>
		<path class="st1" d="M279.9,64.1c0.8,0.3,1.4,0.7,1.9,1.4c0.4,0.5,0.6,1.1,0.8,1.8c0.1,0.6,0.2,1.2,0.2,1.8c0,1.5-0.3,2.7-0.9,3.7
			c-0.8,1.4-2,2.1-3.7,2.1h-4.8v-11h4.8C278.8,63.8,279.4,63.9,279.9,64.1z M275.6,65.7v7.2h2.1c1.1,0,1.8-0.5,2.3-1.6
			c0.2-0.6,0.4-1.3,0.4-2.1c0-1.1-0.2-2-0.5-2.6s-1.1-0.9-2.1-0.9H275.6z"/>
		<path class="st1" d="M293.8,65.8H288v2.3h5.4V70H288v2.8h6.1v2h-8.3v-11h8.1V65.8z"/>
		<path class="st1" d="M298.8,71.5c0.1,0.5,0.2,0.9,0.4,1.1c0.4,0.5,1,0.7,2,0.7c0.6,0,1-0.1,1.4-0.2c0.7-0.2,1-0.7,1-1.3
			c0-0.4-0.2-0.6-0.5-0.8c-0.3-0.2-0.8-0.4-1.5-0.5l-1.2-0.3c-1.2-0.3-2-0.5-2.4-0.8c-0.7-0.5-1.1-1.3-1.1-2.4c0-1,0.4-1.8,1.1-2.5
			c0.7-0.7,1.8-1,3.2-1c1.2,0,2.2,0.3,3,0.9c0.8,0.6,1.3,1.5,1.3,2.7h-2.2c0-0.7-0.3-1.1-0.9-1.4c-0.4-0.2-0.8-0.3-1.4-0.3
			c-0.6,0-1.1,0.1-1.5,0.4c-0.4,0.2-0.5,0.6-0.5,1c0,0.4,0.2,0.7,0.5,0.9c0.2,0.1,0.7,0.3,1.5,0.5l1.9,0.5c0.8,0.2,1.5,0.5,1.9,0.8
			c0.7,0.5,1,1.3,1,2.3c0,1-0.4,1.8-1.2,2.5c-0.8,0.7-1.9,1-3.3,1c-1.5,0-2.6-0.3-3.4-1c-0.8-0.7-1.2-1.6-1.2-2.7H298.8z"/>
		<path class="st1" d="M310.7,74.9h-2.3v-11h2.3V74.9z"/>
		<path class="st1" d="M321.5,67.3c-0.2-0.8-0.6-1.3-1.3-1.6c-0.4-0.2-0.8-0.2-1.3-0.2c-0.9,0-1.6,0.3-2.2,1c-0.6,0.7-0.9,1.7-0.9,3
			c0,1.4,0.3,2.3,0.9,2.9c0.6,0.6,1.3,0.8,2.1,0.8c0.8,0,1.4-0.2,1.9-0.7s0.8-1,0.9-1.7h-2.5v-1.8h4.6v5.9h-1.5l-0.2-1.4
			c-0.4,0.5-0.8,0.9-1.2,1.1c-0.6,0.4-1.4,0.6-2.2,0.6c-1.5,0-2.7-0.5-3.6-1.5c-1-1-1.5-2.4-1.5-4.2c0-1.8,0.5-3.2,1.5-4.3
			c1-1.1,2.3-1.6,3.9-1.6c1.4,0,2.5,0.4,3.4,1.1c0.8,0.7,1.3,1.6,1.5,2.7H321.5z"/>
		<path class="st1" d="M327.2,63.8h2.4l4.4,7.7v-7.7h2.1v11h-2.3l-4.5-7.8v7.8h-2.1V63.8z"/>
		<path class="st1" d="M345.4,71.5c0.1,0.5,0.2,0.9,0.4,1.1c0.4,0.5,1,0.7,2,0.7c0.6,0,1-0.1,1.4-0.2c0.7-0.2,1-0.7,1-1.3
			c0-0.4-0.2-0.6-0.5-0.8c-0.3-0.2-0.8-0.4-1.5-0.5l-1.2-0.3c-1.2-0.3-2-0.5-2.4-0.8c-0.7-0.5-1.1-1.3-1.1-2.4c0-1,0.4-1.8,1.1-2.5
			c0.7-0.7,1.8-1,3.2-1c1.2,0,2.2,0.3,3,0.9c0.8,0.6,1.3,1.5,1.3,2.7h-2.2c0-0.7-0.3-1.1-0.9-1.4c-0.4-0.2-0.8-0.3-1.4-0.3
			c-0.6,0-1.1,0.1-1.5,0.4c-0.4,0.2-0.5,0.6-0.5,1c0,0.4,0.2,0.7,0.5,0.9c0.2,0.1,0.7,0.3,1.5,0.5l1.9,0.5c0.8,0.2,1.5,0.5,1.9,0.8
			c0.7,0.5,1,1.3,1,2.3c0,1-0.4,1.8-1.2,2.5c-0.8,0.7-1.9,1-3.3,1c-1.5,0-2.6-0.3-3.4-1c-0.8-0.7-1.2-1.6-1.2-2.7H345.4z"/>
		<path class="st1" d="M363.2,63.8v2h-3.3v9.1h-2.3v-9.1h-3.3v-2H363.2z"/>
		<path class="st1" d="M365.8,63.8h2.3v6.8c0,0.8,0.1,1.3,0.3,1.7c0.3,0.6,0.9,0.9,1.8,0.9c0.9,0,1.5-0.3,1.8-0.9
			c0.2-0.3,0.3-0.9,0.3-1.7v-6.8h2.3v6.8c0,1.2-0.2,2.1-0.5,2.7c-0.7,1.2-2,1.8-3.9,1.8c-1.9,0-3.2-0.6-3.9-1.8
			c-0.4-0.7-0.5-1.6-0.5-2.7V63.8z"/>
		<path class="st1" d="M384.6,64.1c0.8,0.3,1.4,0.7,1.9,1.4c0.4,0.5,0.6,1.1,0.8,1.8c0.1,0.6,0.2,1.2,0.2,1.8c0,1.5-0.3,2.7-0.9,3.7
			c-0.8,1.4-2,2.1-3.7,2.1h-4.8v-11h4.8C383.6,63.8,384.1,63.9,384.6,64.1z M380.4,65.7v7.2h2.1c1.1,0,1.8-0.5,2.3-1.6
			c0.2-0.6,0.4-1.3,0.4-2.1c0-1.1-0.2-2-0.5-2.6s-1.1-0.9-2.1-0.9H380.4z"/>
		<path class="st1" d="M392.5,74.9h-2.3v-11h2.3V74.9z"/>
		<path class="st1" d="M404.4,73.9c-0.8,0.9-2,1.3-3.6,1.3c-1.6,0-2.8-0.4-3.6-1.3c-1.1-1.1-1.7-2.6-1.7-4.5c0-2,0.6-3.5,1.7-4.5
			c0.8-0.9,2-1.3,3.6-1.3c1.6,0,2.8,0.4,3.6,1.3c1.1,1,1.7,2.5,1.7,4.5C406.1,71.3,405.5,72.8,404.4,73.9z M403,72.2
			c0.5-0.7,0.8-1.6,0.8-2.9c0-1.2-0.3-2.2-0.8-2.9c-0.5-0.7-1.3-1-2.2-1c-0.9,0-1.6,0.3-2.2,1s-0.8,1.6-0.8,2.9s0.3,2.2,0.8,2.9
			s1.3,1,2.2,1C401.7,73.2,402.4,72.9,403,72.2z"/>
	</g>
	<g>
		<path class="st2" d="M52.1,3.6C70.3,12.2,78,34,69.3,52.1c-7,14.7-22.7,22.6-38,20.4l6.1-12.8c8.4-0.3,16.2-5.2,20.1-13.2
			c5.5-11.6,0.6-25.5-11-31.1c-11.6-5.5-25.5-0.6-31.1,11c-3.9,8.2-2.6,17.7,2.7,24.4L12,63.5C0.4,52.9-3.5,35.6,3.6,20.7
			C12.2,2.6,34-5.1,52.1,3.6z"/>
		<path class="st2" d="M24.6,63.2l-1.9-0.9c1.3-3.3,2.6-7.5,3.6-12.7l2.2-10.3c1.3-6.2,2.6-10.5,3.7-12.9c1-2.2,2.5-3.6,4.5-4.3
			c1.9-0.7,4-0.5,6.1,0.5c2,1,3.4,2.4,4.1,4.4c0.7,2,0.6,4-0.4,6.1c-1,2.1-3.7,5.8-7.9,11.1L32,52.3C29.6,55.2,27.2,58.8,24.6,63.2z
			"/>
		<path class="st2" d="M21.6,67.3c1.8,0.9,3,2.2,3.7,4.1c0.7,1.9,0.6,3.7-0.3,5.5c-0.9,1.8-2.2,3-4.1,3.7c-1.9,0.7-3.7,0.6-5.5-0.3
			c-1.8-0.9-3-2.2-3.7-4.1c-0.6-1.9-0.6-3.7,0.3-5.5c0.8-1.8,2.2-3,4.1-3.7C18,66.4,19.8,66.5,21.6,67.3z"/>
	</g>
</g>
</svg>
