<?xml version="1.0" encoding="utf-8"?>
<!-- Generator: Adobe Illustrator 22.0.1, SVG Export Plug-In . SVG Version: 6.00 Build 0)  -->
<svg version="1.1" id="Layer_1" xmlns="http://www.w3.org/2000/svg" xmlns:xlink="http://www.w3.org/1999/xlink" x="0px" y="0px"
	 viewBox="0 0 250 26" style="enable-background:new 0 0 250 26;" xml:space="preserve">
<style type="text/css">
	.st0{fill:#1067B2;}
	.st1{fill:#848585;}
	.st2{fill:#010101;}
</style>
<g>
	<path class="st0" d="M113.8,24.8h-5.9V0.6h5.9V24.8 M105.2,5.6h-6.8v19.2h-5.8V5.6h-6.8v-5h19.5L105.2,5.6L105.2,5.6z M83.1,24.8
		h-5.9V0.6h5.9V24.8z M67.3,8c0-2.3-2.1-2.7-3.9-2.7h-3.1V11h2.8C64.9,11,67.3,10.5,67.3,8z M74.4,24.8h-6.8l-5.2-9.6h-2v9.6h-5.7
		V0.6h9.2c4.6,0,9.2,1.8,9.2,7.3c0,3.2-1.9,5.6-5,6.5L74.4,24.8z M49.6,24.8h-5.7L44,7.7h-0.1l-6.3,17.1h-4.1l-6-17.1h-0.1l0.1,17.1
		H22V0.6h8.3l5.5,15.5h0.1l5.3-15.5h8.4C49.6,0.6,49.6,24.8,49.6,24.8z M18.4,3l-3.7,3.9c-1-1.3-2.8-2.1-4.3-2.1S7,5.3,7,7.2
		c0,1.6,1.4,2.1,3.7,2.8c3.3,1.1,7.5,2.5,7.5,7.3c0,5.6-4.5,8.1-9.2,8.1c-3.4,0-6.9-1.3-9-3.5L3.7,18c1.2,1.5,3.3,2.6,5.2,2.6
		c1.8,0,3.3-0.7,3.3-2.6c0-1.8-1.8-2.4-5-3.4C4.1,13.6,1,12,1,7.7C1.1,2.2,5.9,0,10.4,0C13.2,0,16.2,1.1,18.4,3z"/>
	<path class="st1" d="M245.1,24.8h-6.6L228.7,9h-0.1l0.1,15.8H223V0.6h6.7l9.7,15.8h0.1l-0.1-15.8h5.7V24.8 M203.4,21.2
		c-0.5-0.3-1.1-0.3-1.7-0.1c-0.6,0.2-1,0.6-1.3,1.2s-0.3,1.1-0.1,1.7s0.6,1,1.2,1.3c0.6,0.3,1.2,0.3,1.7,0.1c0.6-0.2,1-0.6,1.3-1.2
		c0.3-0.5,0.3-1.1,0.1-1.7S204,21.5,203.4,21.2z M204.4,19.8c0.8-1.4,1.6-2.5,2.3-3.4l2.1-2.6c1.3-1.7,2.1-2.8,2.5-3.5
		c0.3-0.6,0.3-1.3,0.1-1.9s-0.6-1.1-1.3-1.4c-0.6-0.3-1.3-0.4-1.9-0.1c-0.6,0.2-1.1,0.6-1.4,1.4c-0.4,0.8-0.8,2.1-1.2,4.1l-0.7,3.2
		c-0.3,1.6-0.7,2.9-1.1,4L204.4,19.8z M213,1.1c-5.7-2.7-12.6-0.3-15.3,5.4c-2.2,4.7-1,10.1,2.7,13.4l1.9-4
		c-1.6-2.1-2.1-5.1-0.8-7.7c1.7-3.6,6.1-5.2,9.8-3.4c3.6,1.7,5.2,6.1,3.5,9.8c-1.2,2.5-3.7,4.1-6.3,4.2l-1.9,4
		c4.8,0.7,9.8-1.8,12-6.4C221.1,10.7,218.7,3.9,213,1.1z M191.9,24.8H186V0.6h5.9V24.8z M182.3,3l-3.7,3.9c-1-1.3-2.8-2.1-4.3-2.1
		s-3.4,0.5-3.4,2.4c0,1.6,1.4,2.1,3.7,2.8c3.3,1.1,7.5,2.5,7.5,7.3c0,5.6-4.5,8.1-9.2,8.1c-3.4,0-6.9-1.3-9-3.5l3.8-3.9
		c1.2,1.5,3.3,2.6,5.2,2.6c1.8,0,3.3-0.7,3.3-2.6c0-1.8-1.8-2.4-5-3.4c-3.1-1-6.2-2.6-6.2-6.9c0-5.4,4.8-7.6,9.3-7.6
		C177.1,0,180.2,1.1,182.3,3z M162,24.8h-16.9V0.6h16.2v4.9h-10.6V10h10v4.7h-10v5h11.2v5.1H162z M135.2,12.7c0-5.4-3.9-7-7.9-7
		h-2.9v14.1h2.8C131.4,19.7,135.2,18,135.2,12.7z M141.3,12.7c0,8.5-6.9,12.1-13.5,12.1h-9V0.6h8.7C134.3,0.6,141.3,3.5,141.3,12.7z
		"/>
	<path class="st2" d="M247.1,3.6V1.5c0.1,0,0.3,0,0.6,0s0.4,0,0.4,0c0.2,0,0.3,0,0.4,0.1c0.2,0.1,0.3,0.3,0.3,0.5
		c0,0.2-0.1,0.3-0.2,0.4c-0.1,0.1-0.2,0.1-0.4,0.1c0.1,0,0.2,0.1,0.3,0.1c0.1,0.1,0.2,0.3,0.2,0.5v0.2c0,0,0,0,0,0.1c0,0,0,0,0,0.1
		v0.1h-0.5c0-0.1,0-0.2,0-0.3s0-0.2,0-0.3S248.1,3,248,2.9c0,0-0.1,0-0.2,0h-0.1h-0.1v0.8L247.1,3.6L247.1,3.6z M248.3,2.1
		c0-0.1-0.1-0.2-0.2-0.2c-0.1,0-0.2,0-0.3,0h-0.1v0.6h0.2c0.1,0,0.2,0,0.3-0.1C248.3,2.3,248.3,2.3,248.3,2.1z M249.9,2.5
		c0,0.5-0.2,1-0.6,1.4c-0.4,0.4-0.8,0.5-1.3,0.5s-1-0.2-1.4-0.6S246,3,246,2.4s0.2-1,0.6-1.4c0.4-0.3,0.8-0.5,1.3-0.5s1,0.2,1.4,0.6
		C249.7,1.6,249.9,2,249.9,2.5z M248,0.9c-0.4,0-0.8,0.2-1.1,0.5s-0.5,0.7-0.5,1.1s0.2,0.8,0.5,1.1s0.7,0.5,1.1,0.5
		c0.4,0,0.8-0.2,1.1-0.5s0.5-0.7,0.5-1.1s-0.2-0.8-0.5-1.1C248.8,1.1,248.4,0.9,248,0.9z"/>
</g>
</svg>
